678231 367187 509
290745 845624 525
494832 624791 470
603712 869633 525
937306 98129 525
98491 350647 443
526978 296223 470
134445 463647 449
530945 107230 470
530860 350866 470
468533 766089 509
906380 538660 525
641399 669817 442
860491 430661 525
163584 116877 383
735007 709453 424
921582 840885 476
799339 279174 509
482340 21099 449
402845 371117 436
333916 166661 443
826722 784150 468
111555 312017 443
66210 338652 443
297440 480988 449
8108 224684 386
108398 788690 509
413339 888167 525
707492 566480 509
132549 619306 470
678955 749592 504
592602 643452 509
99275 476650 449
3585 627761 509
282901 298270 389
724776 88050 509
807116 342024 509
175316 42615 383
79160 389503 443
351632 267562 441
627895 719818 504
649022 240974 509
102909 759778 509
210008 511608 470
803514 987235 525
55574 851424 525
776877 799501 468
763673 157823 509
577032 835460 509
118108 255215 443
185492 242900 443
384722 338875 441
844815 896034 445
943474 406041 525
929531 409167 525
335764 810831 509
821611 849921 525
426509 654759 509
799232 709024 468
575702 508861 470
306728 981419 525
346170 888519 525
406008 731388 509
423173 218098 449
69367 62737 330
230580 411951 449
794454 443825 509
532860 364217 470
167448 611337 470
249081 730075 509
714889 564828 509
429703 63966 449
769152 788999 437
939294 764124 525
483250 92560 449
113655 456688 449
59929 20669 340
173752 236091 443
390376 674982 509
218487 185939 386
852250 599863 525
896809 877913 445
320792 183691 443
386294 77869 443
932047 952459 507
524856 137977 470
979290 210474 525
273860 134352 443
873559 502081 525
949299 777053 525
34469 648455 509
42267 972684 525
619232 266202 470
200397 1464 383
574094 942261 525
23538 461193 449
114599 140805 349
397408 89095 443
313943 610305 470
183272 36202 383
535172 631790 509
16851 389837 443
558272 81813 470
953272 107799 525
682170 763325 504
352676 150116 443
449302 552146 470
229564 473305 449
136928 833357 509
571491 780764 509
408056 333654 441
943232 420883 525
255616 164880 443
787974 324016 509
850289 151293 525
181366 240430 443
559279 222757 470
820836 250699 509
262605 703816 509
884420 490163 525
168428 720791 509
312732 503326 449
498294 429696 444
612107 711293 509
761438 853961 525
401973 837612 525
785582 456406 509
565284 412057 470
777425 197100 509
177560 216323 386
428848 867096 525
873993 788133 525
272111 523241 470
43155 963901 525
553236 539913 452
656111 858416 525
682162 950076 525
50982 871499 525
309111 177479 443
244421 54216 443
731183 14025 509
263060 510461 449
199469 953733 525
462860 714006 509
135462 56460 354
445197 747123 509
358793 324285 441
972549 605994 525
133948 102360 354
312429 42450 443
394660 206840 443
844837 259452 525
886789 40183 525
961316 465968 525
736629 983359 525
486580 733729 509
764043 446646 509
581501 348838 470
279749 406811 441
578736 238766 470
349162 101568 443
577690 670207 509
84869 27346 351
267138 31565 443
134253 899244 525
686467 605834 509
397210 493498 449
73928 47251 340
779953 536006 509
733079 967228 525
766966 981372 525
156403 750297 509
642745 812480 504
454136 744930 509
531852 924422 525
261702 531639 470
866685 70017 525
334750 827908 509
344479 236216 407
562858 502157 470
681993 742459 504
573101 414594 470
886550 89492 525
589532 346679 470
802036 431377 509
818458 697042 504
802528 390100 509
488000 596550 470
635879 442753 509
531936 431361 470
169414 648196 509
747789 41514 509
954573 450381 525
993309 81019 525
921854 714202 525
833208 100359 509
599942 921664 525
816199 206082 509
59518 93394 351
974067 961986 458
608792 343082 470
888880 433201 525
584036 595911 403
223639 760128 509
163831 241230 443
388747 122945 443
604091 695283 509
162826 258035 443
362107 219817 443
5624 437836 449
675648 259692 509
423286 18494 449
531796 729081 509
169392 100345 383
504823 858244 525
114673 576508 470
167127 856546 525
828910 941699 525
307113 873416 525
824748 747106 468
241456 322446 407
53422 486491 449
858535 21503 525
262355 798681 509
671502 143365 509
299686 416061 449
751102 629102 504
916007 421650 525
247519 475520 449
370170 840779 525
447174 881791 525
986063 384935 525
151216 149015 370
241351 244642 337
692587 526990 509
285306 60805 443
653934 211215 509
370140 364993 392
447970 437926 400
970496 661212 525
861946 484475 525
424193 497581 444
164789 804069 509
924225 350222 525
486230 363297 449
574796 505879 470
860132 817894 525
604333 454126 470
394422 329709 441
482047 442481 444
